[2016-07-20 17:51:39.161] [DEBUG] logger - Successfully connected to the database
[2016-07-20 17:52:09.624] [DEBUG] logger - Successfully connected to the database
[2016-07-20 17:52:23.683] [DEBUG] logger - Successfully connected to the database
[2016-07-20 17:58:12.813] [DEBUG] logger - Successfully connected to the database
[2016-07-20 18:37:59.929] [DEBUG] logger - Successfully connected to the database
[2016-07-20 18:41:50.604] [DEBUG] logger - Successfully connected to the database
[2016-07-20 18:42:23.771] [DEBUG] logger - Successfully connected to the database
[2016-07-20 18:43:06.427] [DEBUG] logger - Successfully connected to the database
[2016-07-20 18:43:18.036] [DEBUG] logger - Successfully connected to the database
[2016-07-20 18:43:34.365] [DEBUG] logger - Successfully connected to the database
[2016-07-20 18:43:50.654] [DEBUG] logger - Successfully connected to the database
[2016-07-20 18:43:55.354] [DEBUG] logger - Successfully connected to the database
[2016-07-20 18:44:00.608] [DEBUG] logger - Successfully connected to the database
[2016-07-20 18:44:20.169] [DEBUG] logger - Successfully connected to the database
[2016-07-20 18:44:35.108] [DEBUG] logger - Successfully connected to the database
